[{
  "tittle": "Marketing Manager",
  "best" : false,
  "status": "bad",
  "photo": "http://dummyimage.com/230x230.jpg/ff4444/ffffff"
}, {
  "tittle": "Environmental Specialist",
  "best" : true,
  "status": "bad",
  "photo": "http://dummyimage.com/230x230.jpg/ff4444/ffffff"
}, {
  "tittle": "Chief Design Engineer",
  "best" : false,
  "status": "bad",
  "photo": "http://dummyimage.com/230x230.jpg/cc0000/ffffff"
}, {
  "tittle": "Senior Financial Analyst",
  "best" : true,
  "status": "good",
  "photo": "http://dummyimage.com/230x230.jpg/ff4444/ffffff"
}, {
  "tittle": "Legal Assistant",
  "best" : false,
  "status": "good",
  "photo": "http://dummyimage.com/230x230.jpg/5fa2dd/ffffff"
}, {
  "tittle": "Systems Administrator IV",
  "best" : true,
  "status": "good",
  "photo": "http://dummyimage.com/230x230.jpg/dddddd/000000"
}, {
  "tittle": "Quality Engineer",
  "best" : true,
  "status": "bad",
  "photo": "http://dummyimage.com/230x230.jpg/5fa2dd/ffffff"
}, {
  "tittle": "VP Accounting",
  "best" : true,
  "status": "bad",
  "photo": "http://dummyimage.com/230x230.jpg/dddddd/000000"
}, {
  "tittle": "Speech Pathologist",
  "best" : false,
  "status": "bad",
  "photo": "http://dummyimage.com/230x230.jpg/dddddd/000000"
}, {
  "tittle": "Clinical Specialist",
  "best" : false,
  "status": "bad",
  "photo": "http://dummyimage.com/230x230.jpg/dddddd/000000"
}]